INFO in LauSimFitMaster::initSockets : Waiting for connection with 2 workers on port 5002
                                     : Added slave 0
                                     : Added slave 1
INFO in LauSimFitMaster::initSockets : Initialising slaves
                                     : Now start fit

INFO in LauSimFitMaster::runSimFit : First experiment = 0
INFO in LauSimFitMaster::runSimFit : Number of experiments = 10
INFO in LauSimFitMaster::runSimFit : Creating fit ntuple.
INFO in LauSimFitMaster::readData : Slave 1 reports 1434 events found for experiment 0
INFO in LauSimFitMaster::readData : Slave 0 reports 4847 events found for experiment 0

 *** Break *** segmentation violation



===========================================================
There was a crash.
This is the entire stack trace of all threads:
===========================================================
#0  0x00007fee20b7a89e in waitpid () from /lib64/libc.so.6
#1  0x00007fee20b0c4e9 in do_system () from /lib64/libc.so.6
#2  0x00007fee2609f694 in TUnixSystem::StackTrace() () from /usr/lib64/root/libCore.so.5.34
#3  0x00007fee2609eab3 in TUnixSystem::DispatchSignals(ESignals) () from /usr/lib64/root/libCore.so.5.34
#4  <signal handler called>
#5  0x00007fee26b2563b in LauSimFitMaster::getParametersFromSlavesFirstTime (this=0x7ffd6913a380) at src/LauSimFitMaster.cc:329
#6  0x00007fee26b260b5 in LauSimFitMaster::getParametersFromSlaves (this=0x7ffd6913a380) at src/LauSimFitMaster.cc:223
#7  0x00007fee26b26159 in LauSimFitMaster::checkInitFitParams (this=this
entry=0x7ffd6913a380) at src/LauSimFitMaster.cc:636
#8  0x00007fee26b26180 in LauSimFitMaster::fitExpt (this=this
entry=0x7ffd6913a380) at src/LauSimFitMaster.cc:645
#9  0x00007fee26b28635 in LauSimFitMaster::runSimFit (this=this
entry=0x7ffd6913a380, fitNtupleFileName=..., nExp=nExp
entry=10, firstExp=firstExp
entry=0, useAsymmErrors=useAsymmErrors
entry=false, doTwoStageFit=doTwoStageFit
entry=false) at src/LauSimFitMaster.cc:472
#10 0x0000000000401439 in main (argc=<optimized out>, argv=<optimized out>) at Master.cc:55
===========================================================


The lines below might hint at the cause of the crash.
If they do not help you then please submit a bug report at
http://root.cern.ch/bugs. Please post the ENTIRE stack trace
from above as an attachment in addition to anything else
that might help us fixing this issue.
===========================================================
#5  0x00007fee26b2563b in LauSimFitMaster::getParametersFromSlavesFirstTime (this=0x7ffd6913a380) at src/LauSimFitMaster.cc:329
#6  0x00007fee26b260b5 in LauSimFitMaster::getParametersFromSlaves (this=0x7ffd6913a380) at src/LauSimFitMaster.cc:223
#7  0x00007fee26b26159 in LauSimFitMaster::checkInitFitParams (this=this
entry=0x7ffd6913a380) at src/LauSimFitMaster.cc:636
#8  0x00007fee26b26180 in LauSimFitMaster::fitExpt (this=this
entry=0x7ffd6913a380) at src/LauSimFitMaster.cc:645
#9  0x00007fee26b28635 in LauSimFitMaster::runSimFit (this=this
entry=0x7ffd6913a380, fitNtupleFileName=..., nExp=nExp
entry=10, firstExp=firstExp
entry=0, useAsymmErrors=useAsymmErrors
entry=false, doTwoStageFit=doTwoStageFit
entry=false) at src/LauSimFitMaster.cc:472
#10 0x0000000000401439 in main (argc=<optimized out>, argv=<optimized out>) at Master.cc:55
===========================================================


