INFO in LauDaughters::setParentType : Setting parent to be B0 == 511
INFO in LauDaughters::setDaugType : Setting daughter 1 to be K+ == 321
INFO in LauDaughters::setDaugType : Setting daughter 2 to be K- == -321
INFO in LauDaughters::setDaugType : Setting daughter 3 to be K_S0 == 310
INFO in LauDaughters::testDPSymmetry : We have a flavour-conjugate DP. 
INFO in LauKinematics::LauKinematics : squareDP = kTRUE
Warning in <TClass::TClass>: no dictionary for class TPaletteAxis is available
Error in <TBufferFile::ReadObject>: trying to read an emulated class (TPaletteAxis) to store in a compiled pointer (TObject)
INFO in LauEffModel::setEffHisto : Efficiency histogram has upperHalf = 0
INFO in LauResonanceMaker::createResonanceVector : Setting up possible resonance states...
INFO in LauResonanceMaker::getResonance : Freezing amplitude formalism:
                                        : Spin factors use Zemach spin tensors, with bachelor momentum in resonance rest frame
                                        : Blatt-Weisskopf barrier factors are the 'primed' form
                                        : Blatt-Weisskopf barrier factors use bachelor momentum in resonance rest frame
INFO in LauResonanceMaker::getResonance : Creating resonance: phi(1020)
                                        : Using relativistic Breit-Wigner lineshape. 
INFO in LauBlattWeisskopfFactor constructor : creating radius parameter for category "Light", with initial value 4
INFO in LauBlattWeisskopfFactor constructor : creating radius parameter for category "Parent", with initial value 5
INFO in LauIsobarDynamics::addResonance : Successfully added resonance. Total number of resonances so far = 1
INFO in LauResonanceMaker::getResonance : Creating resonance: f_0(980)
                                        : Using Flatte lineshape. 
INFO in LauFlatteRes::LauFlatteRes : Setting default parameters for f_0(980):
                                   : mass = 0.965 GeV/c^2
                                   : g1   = 0.165 GeV^2
                                   : g2   = 0.69465 GeV^2
                                   : Will absorb m0 into couplings
                                   : Will not use Adler zero term
INFO in LauIsobarDynamics::addResonance : Successfully added resonance. Total number of resonances so far = 2
INFO in LauFlatteRes::setResonanceParameter : Setting g1 parameter to 0.2
INFO in LauFlatteRes::setResonanceParameter : Setting g2 parameter to 1
INFO in LauResonanceMaker::getResonance : Creating resonance: f_0(1500)
                                        : Using relativistic Breit-Wigner lineshape. 
INFO in LauIsobarDynamics::addResonance : Successfully added resonance. Total number of resonances so far = 3
INFO in LauResonanceMaker::getResonance : Creating resonance: f_0(1710)
                                        : Using relativistic Breit-Wigner lineshape. 
INFO in LauIsobarDynamics::addResonance : Successfully added resonance. Total number of resonances so far = 4
INFO in LauResonanceMaker::getResonance : Creating resonance: f'_2(1525)
                                        : Using relativistic Breit-Wigner lineshape. 
INFO in LauIsobarDynamics::addResonance : Successfully added resonance. Total number of resonances so far = 5
INFO in LauResonanceMaker::getResonance : Creating resonance: chi_c0
                                        : Using relativistic Breit-Wigner lineshape. 
INFO in LauBlattWeisskopfFactor constructor : creating radius parameter for category "Charmonium", with initial value 4
INFO in LauIsobarDynamics::addResonance : Successfully added resonance. Total number of resonances so far = 6
INFO in LauResonanceMaker::getResonance : Creating resonance: PolNR_S0
                                        : Using polynomial NR lineshape. 
INFO in LauIsobarDynamics::addResonance : Successfully added resonance. Total number of resonances so far = 7
INFO in LauResonanceMaker::getResonance : Creating resonance: PolNR_S1
                                        : Using polynomial NR lineshape. 
INFO in LauIsobarDynamics::addResonance : Successfully added resonance. Total number of resonances so far = 8
INFO in LauResonanceMaker::getResonance : Creating resonance: PolNR_S2
                                        : Using polynomial NR lineshape. 
INFO in LauIsobarDynamics::addResonance : Successfully added resonance. Total number of resonances so far = 9
INFO in LauResonanceMaker::getResonance : Creating resonance: PolNR_P0
                                        : Using polynomial NR lineshape. 
INFO in LauIsobarDynamics::addResonance : Successfully added resonance. Total number of resonances so far = 10
INFO in LauResonanceMaker::getResonance : Creating resonance: PolNR_P2
                                        : Using polynomial NR lineshape. 
INFO in LauIsobarDynamics::addResonance : Successfully added resonance. Total number of resonances so far = 11
phi(1020)
0.7
0.35
0
1
f_0(980)
0.99
1.92
0
0
f_0(1500)
0.4
-1.77
0
0
f_0(1710)
0.24
-0.19
0
0
f'_2(1525)
0.39
0.14
0
0
chi_c0
0.32
-1.29
0
0
PolNR_S0
0.84
0
1
1
PolNR_S1
0.57
-3.3
0
0
PolNR_S2
0.32
3.84
0
0
PolNR_P0
0.91
1.13
0
1
PolNR_P2
0.54
-2.29
0
1
INFO in LauSimpleFitModel::setAmpCoeffSet : Added coefficients for component A0: "phi(1020)" to the fit model.
INFO in LauMagPhaseCoeffSet::printParValues : Component "phi(1020)" has magnitude = 0.7 and phase = 0.35.
INFO in LauSimpleFitModel::setAmpCoeffSet : Added coefficients for component A1: "f_0(980)" to the fit model.
INFO in LauMagPhaseCoeffSet::printParValues : Component "f_0(980)" has magnitude = 0.99 and phase = 1.92.
INFO in LauSimpleFitModel::setAmpCoeffSet : Added coefficients for component A2: "f_0(1500)" to the fit model.
INFO in LauMagPhaseCoeffSet::printParValues : Component "f_0(1500)" has magnitude = 0.4 and phase = -1.77.
INFO in LauSimpleFitModel::setAmpCoeffSet : Added coefficients for component A3: "f_0(1710)" to the fit model.
INFO in LauMagPhaseCoeffSet::printParValues : Component "f_0(1710)" has magnitude = 0.24 and phase = -0.19.
INFO in LauSimpleFitModel::setAmpCoeffSet : Added coefficients for component A4: "f'_2(1525)" to the fit model.
INFO in LauMagPhaseCoeffSet::printParValues : Component "f'_2(1525)" has magnitude = 0.39 and phase = 0.14.
INFO in LauSimpleFitModel::setAmpCoeffSet : Added coefficients for component A5: "chi_c0" to the fit model.
INFO in LauMagPhaseCoeffSet::printParValues : Component "chi_c0" has magnitude = 0.32 and phase = -1.29.
INFO in LauSimpleFitModel::setAmpCoeffSet : Added coefficients for component A6: "PolNR_S0" to the fit model.
INFO in LauMagPhaseCoeffSet::printParValues : Component "PolNR_S0" has magnitude = 0.84 and phase = 0.
INFO in LauSimpleFitModel::setAmpCoeffSet : Added coefficients for component A7: "PolNR_S1" to the fit model.
INFO in LauMagPhaseCoeffSet::printParValues : Component "PolNR_S1" has magnitude = 0.57 and phase = -3.3.
INFO in LauSimpleFitModel::setAmpCoeffSet : Added coefficients for component A8: "PolNR_S2" to the fit model.
INFO in LauMagPhaseCoeffSet::printParValues : Component "PolNR_S2" has magnitude = 0.32 and phase = 3.84.
INFO in LauSimpleFitModel::setAmpCoeffSet : Added coefficients for component A9: "PolNR_P0" to the fit model.
INFO in LauMagPhaseCoeffSet::printParValues : Component "PolNR_P0" has magnitude = 0.91 and phase = 1.13.
INFO in LauSimpleFitModel::setAmpCoeffSet : Added coefficients for component A10: "PolNR_P2" to the fit model.
INFO in LauMagPhaseCoeffSet::printParValues : Component "PolNR_P2" has magnitude = 0.54 and phase = -2.29.
INFO in LauSimFitSlave::connectToMaster : Established connection to master on port 5002
                                        : We are slave 1 of 2
INFO in LauSimpleFitModel::initialiseDPModels : Initialising DP models
INFO in LauIsobarDynamics::initSummary : We are going to do a DP with B0 going to K+ K- K_S0
                                       : For the following resonance combinations:
                                       : In tracks 2 and 3:
                                       : In tracks 1 and 3:
                                       : In tracks 1 and 2:
                                       :   A0: phi(1020) to K+, K-
                                       :   A1: f_0(980) to K+, K-
                                       :   A2: f_0(1500) to K+, K-
                                       :   A3: f_0(1710) to K+, K-
                                       :   A4: f'_2(1525) to K+, K-
                                       :   A5: chi_c0 to K+, K-
                                       :   A6: PolNR_S0 to K+, K-
                                       :   A7: PolNR_S1 to K+, K-
                                       :   A8: PolNR_S2 to K+, K-
                                       :   A9: PolNR_P0 to K+, K-
                                       :   A10: PolNR_P2 to K+, K-

INFO in LauIsobarDynamics::initialise : Starting special run to generate the integrals for normalising the PDF...
INFO in LauIsobarDynamics::calcDPNormalisationScheme : Found narrow resonance: phi(1020), mass = 1.01946, width = 0.004266, pair int = 3
INFO in LauIsobarDynamics::calcDPNormalisationScheme : Found narrow resonance: chi_c0, mass = 3.41475, width = 0.0105, pair int = 3
INFO in LauIsobarDynamics::calcDPNormalisationScheme : One or more narrow resonances found in m12, integrating over whole square Dalitz plot with bin widths of 0.001 in mPrime and 0.001 in thetaPrime...
INFO in LauDPPartialIntegralInfo constructor : nmPrimePoints = 1000, nthPrimePoints = 1000
                                             : mPrimeBinWidth = 0.001, thPrimeBinWidth = 0.001
                                             : Integrating over mPrime = 0 to 1, thPrime = 0 to 1
                                             : totmPrimeWeight = 2, totthPrimeWeight = 2
INFO in LauIsobarDynamics::writeIntegralsFile : Writing integral output to integrals file integ.dat
INFO in LauIsobarDynamics::initialise : Summary of the integrals:
 fNorm[0] = 0.007386153203
 fSqSum[0] = 18330.03849
 fSqEffSum[0] = 28.13588966
 fNorm[1] = 0.1743513817
 fSqSum[1] = 32.89646358
 fSqEffSum[1] = 0.06227735528
 fNorm[2] = 0.05378607605
 fSqSum[2] = 345.6688755
 fSqEffSum[2] = 0.66177683
 fNorm[3] = 0.06234407112
 fSqSum[3] = 257.2821657
 fSqEffSum[3] = 0.525299816
 fNorm[4] = 0.001583144146
 fSqSum[4] = 398987.3086
 fSqEffSum[4] = 724.8634269
 fNorm[5] = 0.0275873093
 fSqSum[5] = 1313.95748
 fSqEffSum[5] = 4.281229492
 fNorm[6] = 0.05837379603
 fSqSum[6] = 293.4702807
 fSqEffSum[6] = 0.8297084847
 fNorm[7] = 0.06322361885
 fSqSum[7] = 250.1734965
 fSqEffSum[7] = 0.6918903239
 fNorm[8] = 0.04781930367
 fSqSum[8] = 437.3141245
 fSqEffSum[8] = 1.181453443
 fNorm[9] = 0.05055319396
 fSqSum[9] = 391.2936505
 fSqEffSum[9] = 1.105189687
 fNorm[10] = 0.04141273479
 fSqSum[10] = 583.0854143
 fSqEffSum[10] = 1.566459095
 fifjEffSum[0][0] = (28.13588966,0) fifjEffSum[0][1] = (0.00926923626,0.004776407983) fifjEffSum[0][2] = (-0.007752970825,0.003570156334) fifjEffSum[0][3] = (-0.00447069143,0.0006120833733) fifjEffSum[0][4] = (-0.09545083842,0.06374494597) fifjEffSum[0][5] = (-0.0005148335637,-6.077165451e-05) fifjEffSum[0][6] = (-0.003343751115,0.003106440068) fifjEffSum[0][7] = (0.009628411188,-0.00579259634) fifjEffSum[0][8] = (-0.01588788747,0.01073321436) fifjEffSum[0][9] = (-0.8344601587,0.09818368093) fifjEffSum[0][10] = (-1.169050402,0.3050657749)
 fifjEffSum[1][0] = (0,0) fifjEffSum[1][1] = (0.06227735528,0) fifjEffSum[1][2] = (0.05731119313,0.06661078317) fifjEffSum[1][3] = (0.03096829057,0.06353427767) fifjEffSum[1][4] = (-0.1381803116,-0.1508116041) fifjEffSum[1][5] = (-0.0130473212,0.0205217771) fifjEffSum[1][6] = (-0.1286516298,0.05277498843) fifjEffSum[1][7] = (0.05132261519,-0.0603448469) fifjEffSum[1][8] = (-0.125288917,0.09414907214) fifjEffSum[1][9] = (0.0002837856592,0.0004783973911) fifjEffSum[1][10] = (-0.0005305941791,0.001793245279)
 fifjEffSum[2][0] = (0,0) fifjEffSum[2][1] = (0,0) fifjEffSum[2][2] = (0.66177683,0) fifjEffSum[2][3] = (0.1193937764,0.2622083025) fifjEffSum[2][4] = (-1.938115137,-0.4913252949) fifjEffSum[2][5] = (-0.01785800451,0.02839027785) fifjEffSum[2][6] = (-0.1397254901,0.1089987487) fifjEffSum[2][7] = (0.01249442631,-0.1436100489) fifjEffSum[2][8] = (-0.03546565518,0.1969309943) fifjEffSum[2][9] = (0.001983458912,3.114977564e-05) fifjEffSum[2][10] = (0.003266229794,0.0002883886344)
 fifjEffSum[3][0] = (0,0) fifjEffSum[3][1] = (0,0) fifjEffSum[3][2] = (0,0) fifjEffSum[3][3] = (0.525299816,0) fifjEffSum[3][4] = (-0.2843766766,0.8213470679) fifjEffSum[3][5] = (-0.01664110052,0.03228093636) fifjEffSum[3][6] = (-0.1196067574,0.1220880612) fifjEffSum[3][7] = (-0.029964214,-0.1351607155) fifjEffSum[3][8] = (0.01422413255,0.1586925144) fifjEffSum[3][9] = (0.001506126674,-0.000811427714) fifjEffSum[3][10] = (0.001830225697,-0.000934549934)
 fifjEffSum[4][0] = (0,0) fifjEffSum[4][1] = (0,0) fifjEffSum[4][2] = (0,0) fifjEffSum[4][3] = (0,0) fifjEffSum[4][4] = (724.8634269,0) fifjEffSum[4][5] = (0.03175543243,-0.01690691099) fifjEffSum[4][6] = (0.1591028238,-0.2962135053) fifjEffSum[4][7] = (-0.1889062604,0.3935795026) fifjEffSum[4][8] = (0.05774143446,-0.5237861174) fifjEffSum[4][9] = (0.02321644679,0.01831807489) fifjEffSum[4][10] = (0.03690993421,0.0353705343)
 fifjEffSum[5][0] = (0,0) fifjEffSum[5][1] = (0,0) fifjEffSum[5][2] = (0,0) fifjEffSum[5][3] = (0,0) fifjEffSum[5][4] = (0,0) fifjEffSum[5][5] = (4.281229492,0) fifjEffSum[5][6] = (0.03440344821,0.1534800304) fifjEffSum[5][7] = (-0.1103327361,0.08070366833) fifjEffSum[5][8] = (-0.0727214895,0.04312717191) fifjEffSum[5][9] = (0.0005872935347,-0.00104864768) fifjEffSum[5][10] = (0.0008724992674,-0.0002977822891)
 fifjEffSum[6][0] = (0,0) fifjEffSum[6][1] = (0,0) fifjEffSum[6][2] = (0,0) fifjEffSum[6][3] = (0,0) fifjEffSum[6][4] = (0,0) fifjEffSum[6][5] = (0,0) fifjEffSum[6][6] = (0.8297084847,0) fifjEffSum[6][7] = (0.2005220668,0) fifjEffSum[6][8] = (0.6918903239,0) fifjEffSum[6][9] = (-0.004114051768,0) fifjEffSum[6][10] = (-0.001510739755,0)
 fifjEffSum[7][0] = (0,0) fifjEffSum[7][1] = (0,0) fifjEffSum[7][2] = (0,0) fifjEffSum[7][3] = (0,0) fifjEffSum[7][4] = (0,0) fifjEffSum[7][5] = (0,0) fifjEffSum[7][6] = (0,0) fifjEffSum[7][7] = (0.6918903239,0) fifjEffSum[7][8] = (0.3185648042,0) fifjEffSum[7][9] = (-0.002671717198,0) fifjEffSum[7][10] = (-0.003897680624,0)
 fifjEffSum[8][0] = (0,0) fifjEffSum[8][1] = (0,0) fifjEffSum[8][2] = (0,0) fifjEffSum[8][3] = (0,0) fifjEffSum[8][4] = (0,0) fifjEffSum[8][5] = (0,0) fifjEffSum[8][6] = (0,0) fifjEffSum[8][7] = (0,0) fifjEffSum[8][8] = (1.181453443,0) fifjEffSum[8][9] = (-0.001510739755,0) fifjEffSum[8][10] = (0.002984742843,0)
 fifjEffSum[9][0] = (0,0) fifjEffSum[9][1] = (0,0) fifjEffSum[9][2] = (0,0) fifjEffSum[9][3] = (0,0) fifjEffSum[9][4] = (0,0) fifjEffSum[9][5] = (0,0) fifjEffSum[9][6] = (0,0) fifjEffSum[9][7] = (0,0) fifjEffSum[9][8] = (0,0) fifjEffSum[9][9] = (1.105189687,0) fifjEffSum[9][10] = (0.9184397363,0)
 fifjEffSum[10][0] = (0,0) fifjEffSum[10][1] = (0,0) fifjEffSum[10][2] = (0,0) fifjEffSum[10][3] = (0,0) fifjEffSum[10][4] = (0,0) fifjEffSum[10][5] = (0,0) fifjEffSum[10][6] = (0,0) fifjEffSum[10][7] = (0,0) fifjEffSum[10][8] = (0,0) fifjEffSum[10][9] = (0,0) fifjEffSum[10][10] = (1.566459095,0)
 fifjSum[0][0] = (18330.03849,0) fifjSum[0][1] = (3.106547794e-14,2.69249375e-14) fifjSum[0][2] = (-1.64410672e-14,3.430059193e-14) fifjSum[0][3] = (-1.177096872e-14,2.305648324e-14) fifjSum[0][4] = (-6.585372317e-13,2.481745873e-12) fifjSum[0][5] = (-5.600133577e-15,-4.541316435e-16) fifjSum[0][6] = (-4.452479159e-14,7.567209259e-15) fifjSum[0][7] = (5.023225356e-14,-1.059841665e-14) fifjSum[0][8] = (-8.427360402e-14,1.963048621e-14) fifjSum[0][9] = (-398.879458,62.06101866) fifjSum[0][10] = (-657.4380545,197.5225071)
 fifjSum[1][0] = (0,0) fifjSum[1][1] = (32.89646358,0) fifjSum[1][2] = (25.97099811,37.59342747) fifjSum[1][3] = (11.61930378,33.65058136) fifjSum[1][4] = (-0.0001347426485,-0.0001441802602) fifjSum[1][5] = (-6.167761267,7.494432229) fifjSum[1][6] = (-53.51429724,26.75895548) fifjSum[1][7] = (32.12771211,-33.80581735) fifjSum[1][8] = (-59.1596922,52.44350269) fifjSum[1][9] = (-7.558086071e-15,4.370450143e-15) fifjSum[1][10] = (-1.009541731e-14,8.805900491e-15)
 fifjSum[2][0] = (0,0) fifjSum[2][1] = (0,0) fifjSum[2][2] = (345.6688755,0) fifjSum[2][3] = (58.17919103,133.6466051) fifjSum[2][4] = (-0.001762997309,-0.0004445718138) fifjSum[2][5] = (-7.421685387,11.23877236) fifjSum[2][6] = (-51.35522592,56.68091784) fifjSum[2][7] = (4.945679108,-75.65818039) fifjSum[2][8] = (-0.8795624186,103.9189388) fifjSum[2][9] = (-5.798259597e-15,1.058810042e-14) fifjSum[2][10] = (1.360206356e-15,1.949622476e-14)
 fifjSum[3][0] = (0,0) fifjSum[3][1] = (0,0) fifjSum[3][2] = (0,0) fifjSum[3][3] = (257.2821657,0) fifjSum[3][4] = (-0.0003101984069,0.0007053352895) fifjSum[3][5] = (-6.506880312,12.50610121) fifjSum[3][6] = (-39.30987631,59.58248977) fifjSum[3][7] = (-15.80078108,-67.04622707) fifjSum[3][8] = (22.76274427,78.86588621) fifjSum[3][9] = (-3.780468518e-15,8.568880778e-15) fifjSum[3][10] = (6.536353798e-15,1.231613528e-14)
 fifjSum[4][0] = (0,0) fifjSum[4][1] = (0,0) fifjSum[4][2] = (0,0) fifjSum[4][3] = (0,0) fifjSum[4][4] = (398987.3086,0) fifjSum[4][5] = (4.463320371e-05,-5.953037289e-05) fifjSum[4][6] = (0.000316531245,-0.0002684174749) fifjSum[4][7] = (-7.484006318e-05,0.0003475026328) fifjSum[4][8] = (9.339199069e-05,-0.0004657354758) fifjSum[4][9] = (-6.941174233e-13,9.168639104e-13) fifjSum[4][10] = (1.068321647e-13,1.799236181e-12)
 fifjSum[5][0] = (0,0) fifjSum[5][1] = (0,0) fifjSum[5][2] = (0,0) fifjSum[5][3] = (0,0) fifjSum[5][4] = (0,0) fifjSum[5][5] = (1313.95748,0) fifjSum[5][6] = (20.81035467,47.10113285) fifjSum[5][7] = (-35.94169659,24.71049349) fifjSum[5][8] = (-15.05818279,13.21842389) fifjSum[5][9] = (3.847247838e-15,5.588472553e-17) fifjSum[5][10] = (-2.060218177e-15,-8.096987775e-16)
 fifjSum[6][0] = (0,0) fifjSum[6][1] = (0,0) fifjSum[6][2] = (0,0) fifjSum[6][3] = (0,0) fifjSum[6][4] = (0,0) fifjSum[6][5] = (0,0) fifjSum[6][6] = (293.4702807,0) fifjSum[6][7] = (17.04115718,0) fifjSum[6][8] = (250.1734965,0) fifjSum[6][9] = (3.961368091e-14,0) fifjSum[6][10] = (4.026373189e-14,0)
 fifjSum[7][0] = (0,0) fifjSum[7][1] = (0,0) fifjSum[7][2] = (0,0) fifjSum[7][3] = (0,0) fifjSum[7][4] = (0,0) fifjSum[7][5] = (0,0) fifjSum[7][6] = (0,0) fifjSum[7][7] = (250.1734965,0) fifjSum[7][8] = (28.09201797,0) fifjSum[7][9] = (2.501139139e-15,0) fifjSum[7][10] = (7.226402155e-15,0)
 fifjSum[8][0] = (0,0) fifjSum[8][1] = (0,0) fifjSum[8][2] = (0,0) fifjSum[8][3] = (0,0) fifjSum[8][4] = (0,0) fifjSum[8][5] = (0,0) fifjSum[8][6] = (0,0) fifjSum[8][7] = (0,0) fifjSum[8][8] = (437.3141245,0) fifjSum[8][9] = (4.091674774e-14,0) fifjSum[8][10] = (8.148105129e-14,0)
 fifjSum[9][0] = (0,0) fifjSum[9][1] = (0,0) fifjSum[9][2] = (0,0) fifjSum[9][3] = (0,0) fifjSum[9][4] = (0,0) fifjSum[9][5] = (0,0) fifjSum[9][6] = (0,0) fifjSum[9][7] = (0,0) fifjSum[9][8] = (0,0) fifjSum[9][9] = (391.2936505,0) fifjSum[9][10] = (333.5646134,0)
 fifjSum[10][0] = (0,0) fifjSum[10][1] = (0,0) fifjSum[10][2] = (0,0) fifjSum[10][3] = (0,0) fifjSum[10][4] = (0,0) fifjSum[10][5] = (0,0) fifjSum[10][6] = (0,0) fifjSum[10][7] = (0,0) fifjSum[10][8] = (0,0) fifjSum[10][9] = (0,0) fifjSum[10][10] = (583.0854143,0)
INFO in LauIsobarDynamics::initialise : Initial fit fraction for amplitude (0,0) = 0.1450184084
INFO in LauIsobarDynamics::initialise : Initial fit fraction for amplitude (0,1) = 1.423598188e-17
INFO in LauIsobarDynamics::initialise : Initial fit fraction for amplitude (0,2) = -1.361217823e-18
INFO in LauIsobarDynamics::initialise : Initial fit fraction for amplitude (0,3) = -1.005122214e-18
INFO in LauIsobarDynamics::initialise : Initial fit fraction for amplitude (0,4) = -2.194550658e-18
INFO in LauIsobarDynamics::initialise : Initial fit fraction for amplitude (0,5) = 2.270174788e-20
INFO in LauIsobarDynamics::initialise : Initial fit fraction for amplitude (0,6) = -6.665775385e-18
INFO in LauIsobarDynamics::initialise : Initial fit fraction for amplitude (0,7) = -5.408304953e-18
INFO in LauIsobarDynamics::initialise : Initial fit fraction for amplitude (0,8) = 3.395586614e-18
INFO in LauIsobarDynamics::initialise : Initial fit fraction for amplitude (0,9) = -0.03377804552
INFO in LauIsobarDynamics::initialise : Initial fit fraction for amplitude (0,10) = 0.03295182506
INFO in LauIsobarDynamics::initialise : Initial fit fraction for amplitude (1,1) = 0.2900664278
INFO in LauIsobarDynamics::initialise : Initial fit fraction for amplitude (1,2) = -0.005635866063
INFO in LauIsobarDynamics::initialise : Initial fit fraction for amplitude (1,3) = -0.0532633802
INFO in LauIsobarDynamics::initialise : Initial fit fraction for amplitude (1,4) = 1.066206009e-08
INFO in LauIsobarDynamics::initialise : Initial fit fraction for amplitude (1,5) = 0.006011970506
INFO in LauIsobarDynamics::initialise : Initial fit fraction for amplitude (1,6) = -0.03423671728
INFO in LauIsobarDynamics::initialise : Initial fit fraction for amplitude (1,7) = -0.05127485684
INFO in LauIsobarDynamics::initialise : Initial fit fraction for amplitude (1,8) = 0.1086873943
INFO in LauIsobarDynamics::initialise : Initial fit fraction for amplitude (1,9) = -3.959504326e-17
INFO in LauIsobarDynamics::initialise : Initial fit fraction for amplitude (1,10) = 2.874019595e-17
INFO in LauIsobarDynamics::initialise : Initial fit fraction for amplitude (2,2) = 0.04735295269
INFO in LauIsobarDynamics::initialise : Initial fit fraction for amplitude (2,3) = 0.02536233802
INFO in LauIsobarDynamics::initialise : Initial fit fraction for amplitude (2,4) = 1.31600443e-09
INFO in LauIsobarDynamics::initialise : Initial fit fraction for amplitude (2,5) = -0.0001566206761
INFO in LauIsobarDynamics::initialise : Initial fit fraction for amplitude (2,6) = 0.04103922759
INFO in LauIsobarDynamics::initialise : Initial fit fraction for amplitude (2,7) = 0.03478506251
INFO in LauIsobarDynamics::initialise : Initial fit fraction for amplitude (2,8) = -0.01275975389
INFO in LauIsobarDynamics::initialise : Initial fit fraction for amplitude (2,9) = 4.782226157e-18
INFO in LauIsobarDynamics::initialise : Initial fit fraction for amplitude (2,10) = -2.422615989e-18
INFO in LauIsobarDynamics::initialise : Initial fit fraction for amplitude (3,3) = 0.0170470617
INFO in LauIsobarDynamics::initialise : Initial fit fraction for amplitude (3,4) = -3.548996366e-10
INFO in LauIsobarDynamics::initialise : Initial fit fraction for amplitude (3,5) = -0.001102174203
INFO in LauIsobarDynamics::initialise : Initial fit fraction for amplitude (3,6) = -0.01187721268
INFO in LauIsobarDynamics::initialise : Initial fit fraction for amplitude (3,7) = 0.005716504988
INFO in LauIsobarDynamics::initialise : Initial fit fraction for amplitude (3,8) = -0.01024028719
INFO in LauIsobarDynamics::initialise : Initial fit fraction for amplitude (3,9) = 2.999741024e-18
INFO in LauIsobarDynamics::initialise : Initial fit fraction for amplitude (3,10) = -2.759188808e-18
INFO in LauIsobarDynamics::initialise : Initial fit fraction for amplitude (4,4) = 0.04501489601
INFO in LauIsobarDynamics::initialise : Initial fit fraction for amplitude (4,5) = 2.103684578e-10
INFO in LauIsobarDynamics::initialise : Initial fit fraction for amplitude (4,6) = 6.28796991e-09
INFO in LauIsobarDynamics::initialise : Initial fit fraction for amplitude (4,7) = 2.28765489e-09
INFO in LauIsobarDynamics::initialise : Initial fit fraction for amplitude (4,8) = 9.370434253e-10
INFO in LauIsobarDynamics::initialise : Initial fit fraction for amplitude (4,9) = 6.484021259e-18
INFO in LauIsobarDynamics::initialise : Initial fit fraction for amplitude (4,10) = -1.026403922e-17
INFO in LauIsobarDynamics::initialise : Initial fit fraction for amplitude (5,5) = 0.03030588747
INFO in LauIsobarDynamics::initialise : Initial fit fraction for amplitude (5,6) = 0.0130732334
INFO in LauIsobarDynamics::initialise : Initial fit fraction for amplitude (5,7) = -0.00133363066
INFO in LauIsobarDynamics::initialise : Initial fit fraction for amplitude (5,8) = -0.001454438075
INFO in LauIsobarDynamics::initialise : Initial fit fraction for amplitude (5,9) = -6.85437652e-19
INFO in LauIsobarDynamics::initialise : Initial fit fraction for amplitude (5,10) = -5.04579175e-20
INFO in LauIsobarDynamics::initialise : Initial fit fraction for amplitude (6,6) = 0.2088265021
INFO in LauIsobarDynamics::initialise : Initial fit fraction for amplitude (6,7) = -0.01760093614
INFO in LauIsobarDynamics::initialise : Initial fit fraction for amplitude (6,8) = -0.08509466017
INFO in LauIsobarDynamics::initialise : Initial fit fraction for amplitude (6,9) = 2.256686417e-17
INFO in LauIsobarDynamics::initialise : Initial fit fraction for amplitude (6,10) = -1.721631438e-17
INFO in LauIsobarDynamics::initialise : Initial fit fraction for amplitude (7,7) = 0.09615608428
INFO in LauIsobarDynamics::initialise : Initial fit fraction for amplitude (7,8) = 0.006004655121
INFO in LauIsobarDynamics::initialise : Initial fit fraction for amplitude (7,9) = -6.839108533e-19
INFO in LauIsobarDynamics::initialise : Initial fit fraction for amplitude (7,10) = 1.833407508e-18
INFO in LauIsobarDynamics::initialise : Initial fit fraction for amplitude (8,8) = 0.03030588747
INFO in LauIsobarDynamics::initialise : Initial fit fraction for amplitude (8,9) = -1.548570596e-17
INFO in LauIsobarDynamics::initialise : Initial fit fraction for amplitude (8,10) = 1.631094076e-17
INFO in LauIsobarDynamics::initialise : Initial fit fraction for amplitude (9,9) = 0.2450811326
INFO in LauIsobarDynamics::initialise : Initial fit fraction for amplitude (9,10) = -0.1952996543
INFO in LauIsobarDynamics::initialise : Initial fit fraction for amplitude (10,10) = 0.08630076057
INFO in LauIsobarDynamics::initialise : Initial efficiency = 0.002136907141
INFO in LauIsobarDynamics::initialise : Initial DPRate = 3.378881267
INFO in LauAbsFitModel::clearFitParVectors : Clearing fit variable vectors
INFO in LauSimpleFitModel::setSignalDPParameters : Setting the initial fit parameters for the signal DP model.
INFO in LauSimpleFitModel::setFitNEvents : Initialising number of events for signal and background components...
INFO in LauAbsFitModel::clearExtraVarVectors : Clearing extra ntuple variable vectors
INFO in LauSimFitSlave::setupResultsOutputs : Creating fit ntuple.
INFO in LauFitDataTree::findBranches : Finished finding data tree branches.
                                     : Tree contains 17 branches and a total of 14962 events.
INFO in LauSimFitSlave::processMasterRequests : Received message from master: Read Expt
INFO in LauFitDataTree::readExperimentData : Setting tree to experiment number 0.
                                           : Found 1434 events.
INFO in LauSimFitSlave::processMasterRequests : Received message from master: Cache
WARNING in LauBkgndDPModel::calcHistValue : We don't have a histogram so assuming the likelihood is flat in the Dalitz plot.
WARNING in LauBkgndDPModel::setBkgndHisto : Supplied background histogram pointer is null, likelihood for this component will be flat in the Dalitz plot
INFO in LauBkgndDPModel::setBkgndHisto : Background histogram has upperHalf = 0
INFO in Lau2DHistDPPdf::calcHistNorm : Norm = 293.4676976, bX*bY = 21.92220968*21.92220968 = 480.5832772
INFO in Lau2DHistDPPdf::checkNormalisation : Area = 2080.804821, dx = 0.02192220968, dy = 0.02192220968, dx*dy = 0.0004805832772
                                           : Area with no norm = 610649*dx*dy = 293.4676976
                                           : The total area of the normalised histogram PDF is 1
INFO in Lau2DAbsHistDPPdf::calcMaxHeight : Max height = 1

 *** Break *** segmentation violation



===========================================================
There was a crash.
This is the entire stack trace of all threads:
===========================================================
#0  0x00007f15e3e5a89e in waitpid () from /lib64/libc.so.6
#1  0x00007f15e3dec4e9 in do_system () from /lib64/libc.so.6
#2  0x00007f15e937f694 in TUnixSystem::StackTrace() () from /usr/lib64/root/libCore.so.5.34
#3  0x00007f15e937eab3 in TUnixSystem::DispatchSignals(ESignals) () from /usr/lib64/root/libCore.so.5.34
#4  <signal handler called>
#5  0x00007f15e9e0a301 in LauSimFitSlave::processMasterRequests (this=this
entry=0x11606e0) at src/LauSimFitSlave.cc:146
#6  0x00007f15e9e0b265 in LauSimFitSlave::runSlave (this=0x11606e0, dataFileName=..., dataTreeName=..., histFileName=..., tableFileName=..., addressMaster=..., portMaster=5002) at src/LauSimFitSlave.cc:95
#7  0x00000000004035cf in main (argc=<optimized out>, argv=<optimized out>) at GenFitSF.cc:245
===========================================================


The lines below might hint at the cause of the crash.
If they do not help you then please submit a bug report at
http://root.cern.ch/bugs. Please post the ENTIRE stack trace
from above as an attachment in addition to anything else
that might help us fixing this issue.
===========================================================
#5  0x00007f15e9e0a301 in LauSimFitSlave::processMasterRequests (this=this
entry=0x11606e0) at src/LauSimFitSlave.cc:146
#6  0x00007f15e9e0b265 in LauSimFitSlave::runSlave (this=0x11606e0, dataFileName=..., dataTreeName=..., histFileName=..., tableFileName=..., addressMaster=..., portMaster=5002) at src/LauSimFitSlave.cc:95
#7  0x00000000004035cf in main (argc=<optimized out>, argv=<optimized out>) at GenFitSF.cc:245
===========================================================


